t_success_prob: 0.7
gamma: 0.9
epsilon: 0.001
move_cost: -1
collision_cost: -2
game_over_cost: -20
goal_reward: 0
method: vi
benchmark: -100
time_limit: 5
initial_seed: 44
#######
#   ###
# #   #
# ###F#
#     #
#^ WWW#
#######